{
	"name": "Nome do Projeto",
	"version": "1.0.0",
	"description": "",
	"homepage": "http://www.site-do-projeto.com.br",
	"author": {
		"name": "Fulano",
		"email": "fulano@gmail.com",
		"url": "http://www.meu-site.com.br"
	},
	"licenses": [
		{
			"type": "MIT",
			"url": "http://opensource.org/licenses/MIT"
		}
	],
	"dependencies": {
		"gulp": "*"
	},
	"devDependencies": {
		"gulp-sass": "*",
		"gulp-concat": "*",
		"gulp-header": "*",
		"gulp-cssmin": "*",
		"gulp-autoprefixer": "*",
		"gulp-uglify": "*",
		"gulp-livereload": "*",
		"gulp-imagemin" : "*",
		"imagemin-pngquant" : "*"
	}
}
